{
  "required": true,
  "package": "com.biom4st3r.dynocaps.mixin",
  "compatibilityLevel": "JAVA_8",
  "plugin": "com.biom4st3r.dynocaps.Plugin",
  "mixins": [

  ],
  "client": [
    "rendering.BlockEntityAccessor",
    
    "rendering.FluidRendererMxn",
    "debug.OptionScreenMxn"
  ],
  "server":[
    
    "PlayerManagerMxn"
  ],
  "old":[
    "rendering.WorldRendererMixin"

  ],
  "injectors": {
    "defaultRequire": 1
  },
  "list":[
    "EntityMxn",
    "ItemEntityAccessor"]
}
