{
  "schemaVersion": 1,
  "id": "dynocaps",
  "version": "${version}",

  "name": "DynoCaps",
  "description": "Travel with the comfort of your own home.",
  "authors": [
    "Biom4st3r"
  ],
  "contact": {
    "homepage": "https://gitlab.com/biom4st3r",
    "sources": "https://gitlab.com/biom4st3r"
  },

  "license": "GNU General Public License 3",
  "icon": "assets/dynocaps/textures/basiccap0",

  "environment": "*",
  "entrypoints": {
    "main": [
      "com.biom4st3r.dynocaps.ModInit"
    ],
    "client": [
      "com.biom4st3r.dynocaps.ModInitClient"
    ],
    "cardinal-components": [
      "com.biom4st3r.dynocaps.register.ComponentRegistry"
    ]
  },
  "mixins": [
    "dynocaps.mixins.json"
  ],
  "depends": {
    "fabricloader": ">=0.8.0",
    "fabric": "*",
    "fabric-renderer-indigo":">=0.3.4",
    "cotton-config":"*",
    "cotton-logging":"*",
    "cardinal-components-base":"*",
    "cardinal-components-item":"*"
  },
  "breaks": {
    "stacc":"*",
    "thalium":"*"
  },
  "accessWidener":"widenme.baby",
  "custom":{
    "cardinal-components": [
      "dynocaps:dynocap",
      "dynocaps:inventory_component"
    ]
  }
}
